{
  "type": "service_account",
  "project_id": "saltnpepa-6c410",
  "private_key_id": "8da43ba79701e44ed19a4cebba1aee8bd6ac3124",
  "private_key": "-----BEGIN PRIVATE KEY-----\nMIIEvQIBADANBgkqhkiG9w0BAQEFAASCBKcwggSjAgEAAoIBAQCwrIqtPfinloIM\nAZ9CuCoWVb0GFu7IUolMe2cf4wTkWSEi3yyBnw6rLk74/GK3roNeAHmtKEbqcFAw\neYHsTuYpOLlv0iix6yvBfS1fJM3GM878PmTz/MOLMiBb1E1MXt789ZiR8oCDjGZZ\nLI3xvir6tVxJb9YyX7VdXI4ehrP9I49ug2ti1t4sbxtLw5EMQBFbfFg7jPe8nYNm\ny1qzYbiM3Ay1Pr14c8XCRi28/wRr+gDxqJSaxX+DekN3zxUIIHQsrKP6cmBSku/a\nlVjiGYYWs8VjMf1CyUkQUf10ynCdlkV2LS+0Fuz6OFQ/UxcHZ5XMHdxSoxr1Yjkc\nT9JjTyFnAgMBAAECggEAckQ2MRQ6xZF3rPJDojBgsC9l4RFmANQ5Dullal83I8Vt\nxBMZwwAvyZFa7Hi4FFrfhiXCjLbXHvvjMWb1G/RvskuIzATd4yzaEPu4I6g3GrEZ\nd1WXj6J0iouyGBJ4qCNYD718nzB75BkjfRtu9uJrA9nWxXx6yfvS3n5lQOMYeGi7\nQCjpYqNLyzpxUroTx3BJ6ZebU92J+G8QZiSHFA3yCDasyuZM1YNBSqlCmz3bBl0a\nIojwO0RpTIkPbRt3dGoEAjfIdQ1887GF/1FQ18xwjN/fFEOy4moFWqFnve0HQyUc\nlLjvlZY2gXQqmfNJe9Nzub7qNqz61n3iD+EfwLyGuQKBgQDarimAtjxJXvVpOpqe\nQF5Sy+wWU7DzQgQV8cIlebr5VxMqZVn0V6q/+ejRFM+JdtNOfxWqVT9ZEKHMlue+\nODvPdMFBY7QGvDtpukNBvcG3pzGI5jl0lziDe36OKuKSXPVdDYqXgvEEAhNxHZ0A\nFjnCDX2I0Bn34vYqz/iEU04ZuwKBgQDO0y6DTzWmrsTITcPJzwQVVptoMZ8p4doW\noXze52Xnxux+T6hX05e9oNODRWSlKr7lz3ZZarfMWCX+qmKMoa5xDeypU1LvlE9J\nrU6Rf02zNphcDNv73NAZKMXqds4vzESA+csi6ww9wUtmvuRpH0Fi0j66CljDSYwO\naInrPNJ2RQKBgGJcUCKq1XcTFUOdropb3ZFUU/6+6iqgmQHd2jvNA0K/3ckGCW4U\nOKNdH1FcEPV90xHNq8sPyQygpIZHojk3Rf/MPljRJdqZtAecVkAtwAKBW5B+LX25\nvxu04nnD5GF9GogeXSZFKW9qF6Cbd1Dgrl4Qf1SYdfW/yoX7QYcTiV+dAoGAW57h\ns/ma4sP5GGKaoQO741gCcB3LTFpoqi3Pi08mrY5JpYrUIFPznGVqTXSoKSLOfi9x\nVhsYYMWLz0zba0EUbbClbj0jOE6S8Sh87adfXEyLIfvwV5px9TNCuaL3o+TxU9FU\nU5ucSJ8gL9vQg2D9LjHE59U9jQU/rgJRVowTD6ECgYEAiOg+NRG3zh4kkmUe1+x6\nn+LeY8xhb1MluMBZA2NHQKFkv1xcme4Hr8fIfsdxNcLLoBCnfznzI0zhmJtAyQxp\nRHpXmM2GmeOOLEYpnDC0AnBjbuQE8JtnKCHK63CPUodlhiQ2BwO242XRlQ5koCdD\ncgH2U9ldGywTKIN1pZZgZJ8=\n-----END PRIVATE KEY-----\n",
  "client_email": "firebase-adminsdk-4hmst@saltnpepa-6c410.iam.gserviceaccount.com",
  "client_id": "116849695710114086523",
  "auth_uri": "https://accounts.google.com/o/oauth2/auth",
  "token_uri": "https://accounts.google.com/o/oauth2/token",
  "auth_provider_x509_cert_url": "https://www.googleapis.com/oauth2/v1/certs",
  "client_x509_cert_url": "https://www.googleapis.com/robot/v1/metadata/x509/firebase-adminsdk-4hmst%40saltnpepa-6c410.iam.gserviceaccount.com"
}
